%YAML 1.1
%TAG !u! tag:unity3d.com,2011:
--- !u!114 &11400000
MonoBehaviour:
  m_ObjectHideFlags: 0
  m_CorrespondingSourceObject: {fileID: 0}
  m_PrefabInstance: {fileID: 0}
  m_PrefabAsset: {fileID: 0}
  m_GameObject: {fileID: 0}
  m_Enabled: 1
  m_EditorHideFlags: 0
  m_Script: {fileID: 11500000, guid: 3ae87c653c6c7bf4e8b202fac05899b0, type: 3}
  m_Name: DefaultData
  m_EditorClassIdentifier: 
  defaultMaterial: {fileID: 2100000, guid: 73a55772f492d024a8cde3626756144b, type: 2}
  placeableMaterial: {fileID: 2100000, guid: c9a81128c1ffc6c4eb2716462f8bf586, type: 2}
  notPlaceableMaterial: {fileID: 2100000, guid: 921721fcadddb4a4889125432da8e551, type: 2}
  windowPrimitive: {fileID: 0}
  wallWidth: 0.25
  wallHeight: 2
